{
	"info": {
		"_postman_id": "425bc79f-d525-4d84-b824-cf9c0a9561ce",
		"name": "P-Project-03",
		"schema": "https://schema.getpostman.com/json/collection/v2.1.0/collection.json",
		"_exporter_id": "29395189"
	},
	"item": [
		{
			"name": "Project-03",
			"event": [
				{
					"listen": "test",
					"script": {
						"exec": [
							"//step01 : validate the Staus code\r",
							"pm.test(\"Status code is 200\", function () {\r",
							"    pm.response.to.have.status(200);\r",
							"});"
						],
						"type": "text/javascript"
					}
				}
			],
			"request": {
				"method": "GET",
				"header": [],
				"url": {
					"raw": "https://gorest.co.in/public/v2/users/628347",
					"protocol": "https",
					"host": [
						"gorest",
						"co",
						"in"
					],
					"path": [
						"public",
						"v2",
						"users",
						"628347"
					]
				}
			},
			"response": []
		},
		{
			"name": "Project-03",
			"request": {
				"method": "POST",
				"header": [],
				"body": {
					"mode": "raw",
					"raw": ""
				},
				"url": {
					"raw": "https://gorest.co.in/public/v2/users",
					"protocol": "https",
					"host": [
						"gorest",
						"co",
						"in"
					],
					"path": [
						"public",
						"v2",
						"users"
					]
				}
			},
			"response": []
		},
		{
			"name": "Project-03",
			"event": [
				{
					"listen": "test",
					"script": {
						"exec": [
							"//step01 : validate the Staus code\r",
							"pm.test(\"Status code is 200\", function () {\r",
							"    pm.response.to.have.status(200);\r",
							"});"
						],
						"type": "text/javascript"
					}
				}
			],
			"request": {
				"method": "PUT",
				"header": [],
				"url": {
					"raw": "https://gorest.co.in/public/v2/users/628347",
					"protocol": "https",
					"host": [
						"gorest",
						"co",
						"in"
					],
					"path": [
						"public",
						"v2",
						"users",
						"628347"
					]
				}
			},
			"response": []
		},
		{
			"name": "Project-03",
			"event": [
				{
					"listen": "test",
					"script": {
						"exec": [
							"//step01 : validate the Staus code\r",
							"pm.test(\"Status code is 200\", function () {\r",
							"    pm.response.to.have.status(200);\r",
							"});"
						],
						"type": "text/javascript"
					}
				}
			],
			"request": {
				"method": "PATCH",
				"header": [],
				"url": {
					"raw": "https://gorest.co.in/public/v2/users/628347",
					"protocol": "https",
					"host": [
						"gorest",
						"co",
						"in"
					],
					"path": [
						"public",
						"v2",
						"users",
						"628347"
					]
				}
			},
			"response": []
		},
		{
			"name": "Project-03",
			"request": {
				"method": "DELETE",
				"header": [],
				"url": {
					"raw": "https://gorest.co.in/public/v2/users/628347",
					"protocol": "https",
					"host": [
						"gorest",
						"co",
						"in"
					],
					"path": [
						"public",
						"v2",
						"users",
						"628347"
					]
				}
			},
			"response": []
		}
	],
	"auth": {
		"type": "bearer",
		"bearer": [
			{
				"key": "token",
				"value": "{{token}}",
				"type": "string"
			}
		]
	},
	"variable": [
		{
			"key": "token",
			"value": "",
			"type": "default"
		}
	]
}